Introduction to Statistical Learning using Python - Notes
…
The following objects are masked from 'package:base':

    intersect, setdiff, setequal, union

Rows: 322 Columns: 21
── Column specification ────────────────────────────────────────────────────────
Delimiter: ","
chr  (4): Names, League, Division, NewLeague
dbl (17): AtBat, Hits, HmRun, Runs, RBI, Walks, Years, CAtBat, CHits, CHmRun...

ℹ Use `spec()` to retrieve the full column specification for this data.
ℹ Specify the column types or set `show_col_types = FALSE` to quiet this message.

# A tibble: 263 × 5
   Names              Hits Years Salary log_Salary
   <chr>             <dbl> <dbl>  <dbl>      <dbl>
 1 -Alan Ashby          81    14  475         6.16
 2 -Alvin Davis        130     3  480         6.17
 3 -Andre Dawson       141    11  500         6.21
 4 -Andres Galarraga    87     2   91.5       4.52
 5 -Alfredo Griffin    169    11  750         6.62
 6 -Al Newman           37     2   70         4.25
 7 -Argenis Salazar     73     3  100         4.61
 8 -Andres Thomas       81     2   75         4.32
 9 -Andre Thornton      92    13 1100         7.00
10 -Alan Trammell      159    10  517.        6.25
# ℹ 253 more rows
…
